%YAML 1.1
%TAG !u! tag:unity3d.com,2011:
--- !u!114 &11400000
MonoBehaviour:
  m_ObjectHideFlags: 0
  m_CorrespondingSourceObject: {fileID: 0}
  m_PrefabInstance: {fileID: 0}
  m_PrefabAsset: {fileID: 0}
  m_GameObject: {fileID: 0}
  m_Enabled: 1
  m_EditorHideFlags: 0
  m_Script: {fileID: 11500000, guid: a5eece72db96efb44be666ae9805b408, type: 3}
  m_Name: VasesVariant8
  m_EditorClassIdentifier: 
  defaultSprite: {fileID: 2900350671504044516, guid: 676efd9832fad0848a44c79370ce7109,
    type: 3}
  ruinedSprite: {fileID: -5004095654035028782, guid: 199a0b7189631754a820d9c3705eb2b6,
    type: 3}
