%YAML 1.1
%TAG !u! tag:unity3d.com,2011:
--- !u!114 &11400000
MonoBehaviour:
  m_ObjectHideFlags: 0
  m_CorrespondingSourceObject: {fileID: 0}
  m_PrefabInstance: {fileID: 0}
  m_PrefabAsset: {fileID: 0}
  m_GameObject: {fileID: 0}
  m_Enabled: 1
  m_EditorHideFlags: 0
  m_Script: {fileID: 11500000, guid: 24fe5dd54b49b39459151108a20bee14, type: 3}
  m_Name: FewSkulls
  m_EditorClassIdentifier: 
  propPrefab: {fileID: 828233737472169100, guid: 1a78989039accbf45b87405c4f354d7e,
    type: 3}
  weight: 4
  size: 0
  type: 0
  subType: 0
