%YAML 1.1
%TAG !u! tag:unity3d.com,2011:
--- !u!114 &11400000
MonoBehaviour:
  m_ObjectHideFlags: 0
  m_CorrespondingSourceObject: {fileID: 0}
  m_PrefabInternal: {fileID: 0}
  m_GameObject: {fileID: 0}
  m_Enabled: 1
  m_EditorHideFlags: 0
  m_Script: {fileID: 11500000, guid: e0d2af1e18924ea499b7f2bb78a6a552, type: 3}
  m_Name: Gold Goblin
  m_EditorClassIdentifier: 
  enemyName: Gold Goblin
  enemyObject: {fileID: 1004898819506224, guid: aed23145c6270bd4ba854c11d9c628f9,
    type: 2}
  cost: 1
  weight: 1
  waveRequirement: 2
  minGold: 25
  maxGold: 30
