%YAML 1.1
%TAG !u! tag:unity3d.com,2011:
--- !u!114 &11400000
MonoBehaviour:
  m_ObjectHideFlags: 0
  m_CorrespondingSourceObject: {fileID: 0}
  m_PrefabInstance: {fileID: 0}
  m_PrefabAsset: {fileID: 0}
  m_GameObject: {fileID: 0}
  m_Enabled: 1
  m_EditorHideFlags: 0
  m_Script: {fileID: 11500000, guid: a5eece72db96efb44be666ae9805b408, type: 3}
  m_Name: BrokenVaseVariant2
  m_EditorClassIdentifier: 
  defaultSprite: {fileID: -2682841071142543280, guid: e0481307995b0b04c872492936aa079e,
    type: 3}
  ruinedSprite: {fileID: -2682841071142543280, guid: e0481307995b0b04c872492936aa079e,
    type: 3}
