%YAML 1.1
%TAG !u! tag:unity3d.com,2011:
--- !u!1001 &100100000
Prefab:
  m_ObjectHideFlags: 1
  serializedVersion: 2
  m_Modification:
    m_TransformParent: {fileID: 0}
    m_Modifications: []
    m_RemovedComponents: []
  m_SourcePrefab: {fileID: 0}
  m_RootGameObject: {fileID: 1458618889985236}
  m_IsPrefabAsset: 1
--- !u!1 &1191124861751064
GameObject:
  m_ObjectHideFlags: 0
  m_CorrespondingSourceObject: {fileID: 0}
  m_PrefabInternal: {fileID: 100100000}
  serializedVersion: 6
  m_Component:
  - component: {fileID: 4825599952545262}
  - component: {fileID: 8195094280825366628}
  - component: {fileID: 3664157343514517946}
  m_Layer: 31
  m_Name: Layer1
  m_TagString: Untagged
  m_Icon: {fileID: 0}
  m_NavMeshLayer: 0
  m_StaticEditorFlags: 0
  m_IsActive: 1
--- !u!1 &1458618889985236
GameObject:
  m_ObjectHideFlags: 0
  m_CorrespondingSourceObject: {fileID: 0}
  m_PrefabInternal: {fileID: 100100000}
  serializedVersion: 6
  m_Component:
  - component: {fileID: 4844839236707852}
  - component: {fileID: 2569400266972495880}
  m_Layer: 31
  m_Name: Environment
  m_TagString: Untagged
  m_Icon: {fileID: 0}
  m_NavMeshLayer: 0
  m_StaticEditorFlags: 0
  m_IsActive: 1
--- !u!4 &4825599952545262
Transform:
  m_ObjectHideFlags: 1
  m_CorrespondingSourceObject: {fileID: 0}
  m_PrefabInternal: {fileID: 100100000}
  m_GameObject: {fileID: 1191124861751064}
  m_LocalRotation: {x: -0, y: -0, z: -0, w: 1}
  m_LocalPosition: {x: 0, y: 0, z: 0}
  m_LocalScale: {x: 1, y: 1, z: 1}
  m_Children: []
  m_Father: {fileID: 4844839236707852}
  m_RootOrder: 0
  m_LocalEulerAnglesHint: {x: 0, y: 0, z: 0}
--- !u!4 &4844839236707852
Transform:
  m_ObjectHideFlags: 1
  m_CorrespondingSourceObject: {fileID: 0}
  m_PrefabInternal: {fileID: 100100000}
  m_GameObject: {fileID: 1458618889985236}
  m_LocalRotation: {x: 0, y: 0, z: 0, w: 1}
  m_LocalPosition: {x: 0, y: 0, z: 0}
  m_LocalScale: {x: 1, y: 1, z: 1}
  m_Children:
  - {fileID: 4825599952545262}
  m_Father: {fileID: 0}
  m_RootOrder: 0
  m_LocalEulerAnglesHint: {x: 0, y: 0, z: 0}
--- !u!114 &114071375973555744
MonoBehaviour:
  m_ObjectHideFlags: 0
  m_CorrespondingSourceObject: {fileID: 0}
  m_PrefabInternal: {fileID: 0}
  m_GameObject: {fileID: 0}
  m_Enabled: 1
  m_EditorHideFlags: 1
  m_Script: {fileID: 12395, guid: 0000000000000000e000000000000000, type: 0}
  m_Name: Palette Settings
  m_EditorClassIdentifier: 
  cellSizing: 100
--- !u!156049354 &2569400266972495880
Grid:
  m_ObjectHideFlags: 1
  m_CorrespondingSourceObject: {fileID: 0}
  m_PrefabInternal: {fileID: 100100000}
  m_GameObject: {fileID: 1458618889985236}
  m_Enabled: 1
  m_CellSize: {x: 1, y: 1, z: 0}
  m_CellGap: {x: 0, y: 0, z: 0}
  m_CellLayout: 0
  m_CellSwizzle: 0
--- !u!483693784 &3664157343514517946
TilemapRenderer:
  m_ObjectHideFlags: 1
  m_CorrespondingSourceObject: {fileID: 0}
  m_PrefabInternal: {fileID: 100100000}
  m_GameObject: {fileID: 1191124861751064}
  m_Enabled: 0
  m_CastShadows: 0
  m_ReceiveShadows: 0
  m_DynamicOccludee: 0
  m_MotionVectors: 1
  m_LightProbeUsage: 0
  m_ReflectionProbeUsage: 0
  m_RenderingLayerMask: 4294967295
  m_Materials:
  - {fileID: 10754, guid: 0000000000000000f000000000000000, type: 0}
  m_StaticBatchInfo:
    firstSubMesh: 0
    subMeshCount: 0
  m_StaticBatchRoot: {fileID: 0}
  m_ProbeAnchor: {fileID: 0}
  m_LightProbeVolumeOverride: {fileID: 0}
  m_ScaleInLightmap: 1
  m_PreserveUVs: 0
  m_IgnoreNormalsForChartDetection: 0
  m_ImportantGI: 0
  m_StitchLightmapSeams: 0
  m_SelectedEditorRenderState: 0
  m_MinimumChartSize: 4
  m_AutoUVMaxDistance: 0.5
  m_AutoUVMaxAngle: 89
  m_LightmapParameters: {fileID: 0}
  m_SortingLayerID: 0
  m_SortingLayer: 0
  m_SortingOrder: 0
  m_ChunkSize: {x: 32, y: 32, z: 32}
  m_ChunkCullingBounds: {x: 0, y: 0, z: 0}
  m_MaxChunkCount: 16
  m_MaxFrameAge: 16
  m_SortOrder: 0
  m_DetectChunkCullingBounds: 0
  m_MaskInteraction: 0
--- !u!1839735485 &8195094280825366628
Tilemap:
  m_ObjectHideFlags: 1
  m_CorrespondingSourceObject: {fileID: 0}
  m_PrefabInternal: {fileID: 100100000}
  m_GameObject: {fileID: 1191124861751064}
  m_Enabled: 1
  m_Tiles:
  - first: {x: 6, y: -3, z: 0}
    second:
      m_TileIndex: 18
      m_TileSpriteIndex: 18
      m_TileMatrixIndex: 0
      m_TileColorIndex: 0
      m_ObjectToInstantiate: {fileID: 0}
      m_TileFlags: 1
      m_ColliderType: 2
  - first: {x: 7, y: -3, z: 0}
    second:
      m_TileIndex: 19
      m_TileSpriteIndex: 19
      m_TileMatrixIndex: 0
      m_TileColorIndex: 0
      m_ObjectToInstantiate: {fileID: 0}
      m_TileFlags: 1
      m_ColliderType: 2
  - first: {x: 8, y: -3, z: 0}
    second:
      m_TileIndex: 21
      m_TileSpriteIndex: 21
      m_TileMatrixIndex: 0
      m_TileColorIndex: 0
      m_ObjectToInstantiate: {fileID: 0}
      m_TileFlags: 1
      m_ColliderType: 2
  - first: {x: 6, y: -2, z: 0}
    second:
      m_TileIndex: 17
      m_TileSpriteIndex: 17
      m_TileMatrixIndex: 0
      m_TileColorIndex: 0
      m_ObjectToInstantiate: {fileID: 0}
      m_TileFlags: 1
      m_ColliderType: 2
  - first: {x: 7, y: -2, z: 0}
    second:
      m_TileIndex: 12
      m_TileSpriteIndex: 2
      m_TileMatrixIndex: 0
      m_TileColorIndex: 0
      m_ObjectToInstantiate: {fileID: 0}
      m_TileFlags: 1
      m_ColliderType: 2
  - first: {x: 8, y: -2, z: 0}
    second:
      m_TileIndex: 20
      m_TileSpriteIndex: 20
      m_TileMatrixIndex: 0
      m_TileColorIndex: 0
      m_ObjectToInstantiate: {fileID: 0}
      m_TileFlags: 1
      m_ColliderType: 2
  - first: {x: -1, y: -1, z: 0}
    second:
      m_TileIndex: 0
      m_TileSpriteIndex: 7
      m_TileMatrixIndex: 0
      m_TileColorIndex: 0
      m_ObjectToInstantiate: {fileID: 0}
      m_TileFlags: 1
      m_ColliderType: 1
  - first: {x: 0, y: -1, z: 0}
    second:
      m_TileIndex: 1
      m_TileSpriteIndex: 6
      m_TileMatrixIndex: 0
      m_TileColorIndex: 0
      m_ObjectToInstantiate: {fileID: 0}
      m_TileFlags: 1
      m_ColliderType: 1
  - first: {x: 2, y: -1, z: 0}
    second:
      m_TileIndex: 16
      m_TileSpriteIndex: 16
      m_TileMatrixIndex: 0
      m_TileColorIndex: 0
      m_ObjectToInstantiate: {fileID: 0}
      m_TileFlags: 1
      m_ColliderType: 2
  - first: {x: 3, y: -1, z: 0}
    second:
      m_TileIndex: 12
      m_TileSpriteIndex: 2
      m_TileMatrixIndex: 0
      m_TileColorIndex: 0
      m_ObjectToInstantiate: {fileID: 0}
      m_TileFlags: 1
      m_ColliderType: 2
  - first: {x: 4, y: -1, z: 0}
    second:
      m_TileIndex: 10
      m_TileSpriteIndex: 3
      m_TileMatrixIndex: 0
      m_TileColorIndex: 0
      m_ObjectToInstantiate: {fileID: 0}
      m_TileFlags: 1
      m_ColliderType: 2
  - first: {x: -1, y: 0, z: 0}
    second:
      m_TileIndex: 2
      m_TileSpriteIndex: 5
      m_TileMatrixIndex: 0
      m_TileColorIndex: 0
      m_ObjectToInstantiate: {fileID: 0}
      m_TileFlags: 1
      m_ColliderType: 1
  - first: {x: 0, y: 0, z: 0}
    second:
      m_TileIndex: 3
      m_TileSpriteIndex: 4
      m_TileMatrixIndex: 0
      m_TileColorIndex: 0
      m_ObjectToInstantiate: {fileID: 0}
      m_TileFlags: 1
      m_ColliderType: 1
  - first: {x: 2, y: 0, z: 0}
    second:
      m_TileIndex: 11
      m_TileSpriteIndex: 10
      m_TileMatrixIndex: 0
      m_TileColorIndex: 0
      m_ObjectToInstantiate: {fileID: 0}
      m_TileFlags: 1
      m_ColliderType: 2
  - first: {x: 3, y: 0, z: 0}
    second:
      m_TileIndex: 6
      m_TileSpriteIndex: 1
      m_TileMatrixIndex: 0
      m_TileColorIndex: 0
      m_ObjectToInstantiate: {fileID: 0}
      m_TileFlags: 1
      m_ColliderType: 1
  - first: {x: 4, y: 0, z: 0}
    second:
      m_TileIndex: 9
      m_TileSpriteIndex: 13
      m_TileMatrixIndex: 0
      m_TileColorIndex: 0
      m_ObjectToInstantiate: {fileID: 0}
      m_TileFlags: 1
      m_ColliderType: 2
  - first: {x: 6, y: 0, z: 0}
    second:
      m_TileIndex: 13
      m_TileSpriteIndex: 12
      m_TileMatrixIndex: 0
      m_TileColorIndex: 0
      m_ObjectToInstantiate: {fileID: 0}
      m_TileFlags: 1
      m_ColliderType: 2
  - first: {x: 7, y: 0, z: 0}
    second:
      m_TileIndex: 6
      m_TileSpriteIndex: 1
      m_TileMatrixIndex: 0
      m_TileColorIndex: 0
      m_ObjectToInstantiate: {fileID: 0}
      m_TileFlags: 1
      m_ColliderType: 1
  - first: {x: 8, y: 0, z: 0}
    second:
      m_TileIndex: 15
      m_TileSpriteIndex: 15
      m_TileMatrixIndex: 0
      m_TileColorIndex: 0
      m_ObjectToInstantiate: {fileID: 0}
      m_TileFlags: 1
      m_ColliderType: 2
  - first: {x: 0, y: 1, z: 0}
    second:
      m_TileIndex: 26
      m_TileSpriteIndex: 23
      m_TileMatrixIndex: 0
      m_TileColorIndex: 0
      m_ObjectToInstantiate: {fileID: 0}
      m_TileFlags: 1
      m_ColliderType: 0
  - first: {x: 2, y: 1, z: 0}
    second:
      m_TileIndex: 7
      m_TileSpriteIndex: 11
      m_TileMatrixIndex: 0
      m_TileColorIndex: 0
      m_ObjectToInstantiate: {fileID: 0}
      m_TileFlags: 1
      m_ColliderType: 2
  - first: {x: 3, y: 1, z: 0}
    second:
      m_TileIndex: 5
      m_TileSpriteIndex: 9
      m_TileMatrixIndex: 0
      m_TileColorIndex: 0
      m_ObjectToInstantiate: {fileID: 0}
      m_TileFlags: 1
      m_ColliderType: 2
  - first: {x: 4, y: 1, z: 0}
    second:
      m_TileIndex: 8
      m_TileSpriteIndex: 8
      m_TileMatrixIndex: 0
      m_TileColorIndex: 0
      m_ObjectToInstantiate: {fileID: 0}
      m_TileFlags: 1
      m_ColliderType: 2
  - first: {x: 6, y: 1, z: 0}
    second:
      m_TileIndex: 4
      m_TileSpriteIndex: 0
      m_TileMatrixIndex: 0
      m_TileColorIndex: 0
      m_ObjectToInstantiate: {fileID: 0}
      m_TileFlags: 1
      m_ColliderType: 2
  - first: {x: 7, y: 1, z: 0}
    second:
      m_TileIndex: 5
      m_TileSpriteIndex: 9
      m_TileMatrixIndex: 0
      m_TileColorIndex: 0
      m_ObjectToInstantiate: {fileID: 0}
      m_TileFlags: 1
      m_ColliderType: 2
  - first: {x: 8, y: 1, z: 0}
    second:
      m_TileIndex: 14
      m_TileSpriteIndex: 14
      m_TileMatrixIndex: 0
      m_TileColorIndex: 0
      m_ObjectToInstantiate: {fileID: 0}
      m_TileFlags: 1
      m_ColliderType: 2
  - first: {x: -1, y: 3, z: 0}
    second:
      m_TileIndex: 25
      m_TileSpriteIndex: 5
      m_TileMatrixIndex: 0
      m_TileColorIndex: 0
      m_ObjectToInstantiate: {fileID: 0}
      m_TileFlags: 1
      m_ColliderType: 2
  - first: {x: 0, y: 3, z: 0}
    second:
      m_TileIndex: 23
      m_TileSpriteIndex: 4
      m_TileMatrixIndex: 0
      m_TileColorIndex: 0
      m_ObjectToInstantiate: {fileID: 0}
      m_TileFlags: 1
      m_ColliderType: 2
  - first: {x: 4, y: 3, z: 0}
    second:
      m_TileIndex: 24
      m_TileSpriteIndex: 22
      m_TileMatrixIndex: 0
      m_TileColorIndex: 0
      m_ObjectToInstantiate: {fileID: 0}
      m_TileFlags: 1
      m_ColliderType: 1
  - first: {x: 0, y: 4, z: 0}
    second:
      m_TileIndex: 22
      m_TileSpriteIndex: 23
      m_TileMatrixIndex: 0
      m_TileColorIndex: 0
      m_ObjectToInstantiate: {fileID: 0}
      m_TileFlags: 1
      m_ColliderType: 2
  m_AnimatedTiles: {}
  m_TileAssetArray:
  - m_RefCount: 1
    m_Data: {fileID: 11400000, guid: c79dfae373abe0742af38b18388f29e9, type: 2}
  - m_RefCount: 1
    m_Data: {fileID: 11400000, guid: 2125ac58a0d2e7d489f31422102f3c9f, type: 2}
  - m_RefCount: 1
    m_Data: {fileID: 11400000, guid: 56532264feaf5874a9e793cbf8878749, type: 2}
  - m_RefCount: 1
    m_Data: {fileID: 11400000, guid: b21e56522e5f9b64e82519afa72f22d0, type: 2}
  - m_RefCount: 1
    m_Data: {fileID: 11400000, guid: aea9affa5e82f3441b97464f6c5962f8, type: 2}
  - m_RefCount: 2
    m_Data: {fileID: 11400000, guid: 810e73f78e6ae91439bc8b87b5d7b57f, type: 2}
  - m_RefCount: 2
    m_Data: {fileID: 11400000, guid: 4b52dfdc0d4a9ec4fa1130810077e06c, type: 2}
  - m_RefCount: 1
    m_Data: {fileID: 11400000, guid: 232b1d8585b0df34c9d3981e92484468, type: 2}
  - m_RefCount: 1
    m_Data: {fileID: 11400000, guid: 5e938a17672aa634a8d77fb792b03ba7, type: 2}
  - m_RefCount: 1
    m_Data: {fileID: 11400000, guid: 72020a3aa2c07ba408e73fa171cc732f, type: 2}
  - m_RefCount: 1
    m_Data: {fileID: 11400000, guid: 373e8e8c5f8c42241b5faa0b48a9679d, type: 2}
  - m_RefCount: 1
    m_Data: {fileID: 11400000, guid: 58933c1193576f144af55a2b0294af3a, type: 2}
  - m_RefCount: 2
    m_Data: {fileID: 11400000, guid: b93fbb484e85c854fa01da987e91877b, type: 2}
  - m_RefCount: 1
    m_Data: {fileID: 11400000, guid: 505dc4127cc55454cb2e22a45f212ab7, type: 2}
  - m_RefCount: 1
    m_Data: {fileID: 11400000, guid: 1c9fe75fbfe4ec44c81a618610fbdc21, type: 2}
  - m_RefCount: 1
    m_Data: {fileID: 11400000, guid: a179fa722d9cfce49adfc7c341d7b00f, type: 2}
  - m_RefCount: 1
    m_Data: {fileID: 11400000, guid: e22c4b36525b82a479001379302fdcff, type: 2}
  - m_RefCount: 1
    m_Data: {fileID: 11400000, guid: 50c6ba6b09d2b9546a8f9aae569bc8cd, type: 2}
  - m_RefCount: 1
    m_Data: {fileID: 11400000, guid: b9fe6b0238fec474387f83d719086985, type: 2}
  - m_RefCount: 1
    m_Data: {fileID: 11400000, guid: 29f854b3ca5479b429d5da78a325ca48, type: 2}
  - m_RefCount: 1
    m_Data: {fileID: 11400000, guid: 35c3976ca6b0d3749ba61728a6202887, type: 2}
  - m_RefCount: 1
    m_Data: {fileID: 11400000, guid: 2b45a5903ea85034097da6bca0eb9130, type: 2}
  - m_RefCount: 1
    m_Data: {fileID: 11400000, guid: 6c41f6fb78c9ce34c8dbbd0518269e03, type: 2}
  - m_RefCount: 1
    m_Data: {fileID: 11400000, guid: dd13ed1ed33d19143849e7660e634561, type: 2}
  - m_RefCount: 1
    m_Data: {fileID: 11400000, guid: 4b934ec5d8713f0449271305c4228e6c, type: 2}
  - m_RefCount: 1
    m_Data: {fileID: 11400000, guid: b5811cb40423982478c024b72e6a0fe9, type: 2}
  - m_RefCount: 1
    m_Data: {fileID: 11400000, guid: f12df87a510734d4ab23547234d06f51, type: 2}
  m_TileSpriteArray:
  - m_RefCount: 1
    m_Data: {fileID: 21300006, guid: 7c99ac1f0cc3b3347a3e01a3836ee8aa, type: 3}
  - m_RefCount: 2
    m_Data: {fileID: 21300014, guid: 7c99ac1f0cc3b3347a3e01a3836ee8aa, type: 3}
  - m_RefCount: 2
    m_Data: {fileID: 21300026, guid: 7c99ac1f0cc3b3347a3e01a3836ee8aa, type: 3}
  - m_RefCount: 1
    m_Data: {fileID: 21300028, guid: 7c99ac1f0cc3b3347a3e01a3836ee8aa, type: 3}
  - m_RefCount: 2
    m_Data: {fileID: 21300006, guid: 8b7c23029560aec438af537c9801d782, type: 3}
  - m_RefCount: 2
    m_Data: {fileID: 21300004, guid: 8b7c23029560aec438af537c9801d782, type: 3}
  - m_RefCount: 1
    m_Data: {fileID: 21300002, guid: 8b7c23029560aec438af537c9801d782, type: 3}
  - m_RefCount: 1
    m_Data: {fileID: 21300000, guid: 8b7c23029560aec438af537c9801d782, type: 3}
  - m_RefCount: 1
    m_Data: {fileID: 21300004, guid: 7c99ac1f0cc3b3347a3e01a3836ee8aa, type: 3}
  - m_RefCount: 2
    m_Data: {fileID: 21300002, guid: 7c99ac1f0cc3b3347a3e01a3836ee8aa, type: 3}
  - m_RefCount: 1
    m_Data: {fileID: 21300012, guid: 7c99ac1f0cc3b3347a3e01a3836ee8aa, type: 3}
  - m_RefCount: 1
    m_Data: {fileID: 21300000, guid: 7c99ac1f0cc3b3347a3e01a3836ee8aa, type: 3}
  - m_RefCount: 1
    m_Data: {fileID: 21300018, guid: 7c99ac1f0cc3b3347a3e01a3836ee8aa, type: 3}
  - m_RefCount: 1
    m_Data: {fileID: 21300016, guid: 7c99ac1f0cc3b3347a3e01a3836ee8aa, type: 3}
  - m_RefCount: 1
    m_Data: {fileID: 21300010, guid: 7c99ac1f0cc3b3347a3e01a3836ee8aa, type: 3}
  - m_RefCount: 1
    m_Data: {fileID: 21300022, guid: 7c99ac1f0cc3b3347a3e01a3836ee8aa, type: 3}
  - m_RefCount: 1
    m_Data: {fileID: 21300024, guid: 7c99ac1f0cc3b3347a3e01a3836ee8aa, type: 3}
  - m_RefCount: 1
    m_Data: {fileID: 21300030, guid: 7c99ac1f0cc3b3347a3e01a3836ee8aa, type: 3}
  - m_RefCount: 1
    m_Data: {fileID: 21300036, guid: 7c99ac1f0cc3b3347a3e01a3836ee8aa, type: 3}
  - m_RefCount: 1
    m_Data: {fileID: 21300038, guid: 7c99ac1f0cc3b3347a3e01a3836ee8aa, type: 3}
  - m_RefCount: 1
    m_Data: {fileID: 21300040, guid: 7c99ac1f0cc3b3347a3e01a3836ee8aa, type: 3}
  - m_RefCount: 1
    m_Data: {fileID: 21300034, guid: 7c99ac1f0cc3b3347a3e01a3836ee8aa, type: 3}
  - m_RefCount: 1
    m_Data: {fileID: 21300000, guid: 62caa875716ab9d4fa5929ffbfcd8791, type: 3}
  - m_RefCount: 2
    m_Data: {fileID: 21300008, guid: 8b7c23029560aec438af537c9801d782, type: 3}
  m_TileMatrixArray:
  - m_RefCount: 30
    m_Data:
      e00: 1
      e01: 0
      e02: 0
      e03: 0
      e10: 0
      e11: 1
      e12: 0
      e13: 0
      e20: 0
      e21: 0
      e22: 1
      e23: 0
      e30: 0
      e31: 0
      e32: 0
      e33: 1
  m_TileColorArray:
  - m_RefCount: 30
    m_Data: {r: 1, g: 1, b: 1, a: 1}
  m_AnimationFrameRate: 1
  m_Color: {r: 1, g: 1, b: 1, a: 1}
  m_Origin: {x: -1, y: -3, z: 0}
  m_Size: {x: 10, y: 8, z: 1}
  m_TileAnchor: {x: 0.5, y: 0.5, z: 0}
  m_TileOrientation: 0
  m_TileOrientationMatrix:
    e00: 1
    e01: 0
    e02: 0
    e03: 0
    e10: 0
    e11: 1
    e12: 0
    e13: 0
    e20: 0
    e21: 0
    e22: 1
    e23: 0
    e30: 0
    e31: 0
    e32: 0
    e33: 1
