%YAML 1.1
%TAG !u! tag:unity3d.com,2011:
--- !u!114 &11400000
MonoBehaviour:
  m_ObjectHideFlags: 0
  m_CorrespondingSourceObject: {fileID: 0}
  m_PrefabInstance: {fileID: 0}
  m_PrefabAsset: {fileID: 0}
  m_GameObject: {fileID: 0}
  m_Enabled: 1
  m_EditorHideFlags: 0
  m_Script: {fileID: 11500000, guid: a5eece72db96efb44be666ae9805b408, type: 3}
  m_Name: SkullPile1
  m_EditorClassIdentifier: 
  defaultSprite: {fileID: 4161652926817978848, guid: b6e326caeb31c5e4198b0b5756790314,
    type: 3}
  ruinedSprite: {fileID: 5003942998810329545, guid: 9bd2fe0da6570644c884cdd8af5af8fe,
    type: 3}
