%YAML 1.1
%TAG !u! tag:unity3d.com,2011:
--- !u!1045 &1
EditorBuildSettings:
  m_ObjectHideFlags: 0
  serializedVersion: 2
  m_Scenes:
  - enabled: 1
    path: Assets/Scenes/MainMenu.unity
    guid: b44afc9953bb7fb458f37c2741c19f39
  - enabled: 1
    path: Assets/Scenes/Armory.unity
    guid: c8036d3bc31bd0147b5213fcc857ef73
  - enabled: 1
    path: Assets/Scenes/EndlessScene.unity
    guid: 10fb18fda221dc54386dedf4e8f1d9ca
  m_configObjects: {}
